{
    "v_current_part":{
        "part_no":"",
        "part_name":"",
        "machine_name":"",
        "model":"",
        "process":"",
        "cycle_time":"",
        "shift":"",
        "qty_plan":"",
        "start_time":"",
        "qty_total":"",
        "qty_rework":"",
        "qty_scrap":"",
        "qty_ok":"",
        "gsph":""
    },
    "v_operation_daily":{
        "date":"",
        "machine_name":"",
        "availability":"",
        "speed":"",
        "yield":"",
        "oee":"",
        "gsph_ave":"",
        "plan_production":"",
        "dies_change":"",
        "no_production":"",
        "actual_production":"",
        "total_dt":"",
        "max_speed":"",
        "speed_loss":"",
        "good_footage":"",
        "reject_footage":""
    },
    "v_daily_derive":{
        "utilization":"",
        "achievement":"",
        "availability":"",
        "dies_change_dt":"",
        "machine_dt":"",
        "dies_dt":"",
        "quality_dt":"",
        "actual_speed":"",
        "qty_ok":"",
        "qty_reject":"",
        "qty_total":""
    }
}